<svg width="16" height="8" viewBox="0 0 16 8" fill="none" xmlns="http://www.w3.org/2000/svg">
<path d="M2.07692 0.555542C1.41318 1.21329 1 2.1386 1 3.16356C1 5.15963 2.567 6.77776 4.5 6.77776C6.433 6.77776 8 5.15963 8 3.16356C8 2.1386 7.58682 1.21329 6.92308 0.555542" stroke="white" stroke-linecap="round"/>
<circle cx="3.8335" cy="4.16666" r="0.5" fill="white"/>
<path d="M13.9231 0.555542C14.5868 1.21329 15 2.1386 15 3.16356C15 5.15963 13.433 6.77776 11.5 6.77776C9.567 6.77776 8 5.15963 8 3.16356C8 2.1386 8.41318 1.21329 9.07692 0.555542" stroke="white" stroke-linecap="round"/>
<circle r="0.5" transform="matrix(-1 0 0 1 12.1665 4.16666)" fill="white"/>
</svg>
